{
	"toppicks": [{
		"title": "Movies for you",
		"items": [{
			"image": "i/items/aftermath.jpg",
			"title": "Aftermath",
			"imdb": true,
			"rating": "7.4",
			"free": true
		},
		{
			"image": "i/items/aloft.jpg",
			"title": "Aloft",
			"imdb": true,
			"rating": "7.4",
			"free": false
		},
		{
			"image": "i/items/ant_man_ver2.jpg",
			"title": "Ant manver2",
			"imdb": true,
			"rating": "8.6",
			"free": true
		},
		{
			"image": "i/items/avengers_age_of_ultron_ver11.jpg",
			"title": "Avengers",
			"imdb": true,
			"rating": "8.7",
			"free": false
		},
		{
			"image": "i/items/furious_seven_ver2.jpg",
			"title": "Furious seven",
			"imdb": true,
			"rating": "4.4",
			"free": false
		},
		{
			"image": "i/items/get_hard.jpg",
			"title": "Get Hard",
			"imdb": true,
			"rating": "7.2",
			"free": false
		},
		{
			"image": "i/items/home.jpg",
			"title": "home",
			"imdb": true,
			"rating": "7.2",
			"free": false
		},
		{
			"image": "i/items/i_robot_ver2.jpg",
			"title": "I Robot",
			"imdb": true,
			"rating": "8.6",
			"free": true
		},
		{
			"image": "i/items/insurgent_ver16.jpg",
			"title": "Insurgent",
			"imdb": true,
			"rating": "8.7",
			"free": false
		},
		{
			"image": "i/items/it_follows_ver2.jpg",
			"title": "It follows",
			"imdb": true,
			"rating": "4.4",
			"free": false
		},
		{
			"image": "i/items/john_wick.jpg",
			"title": "John wick",
			"imdb": true,
			"rating": "7.2",
			"free": false
		},
		{
			"image": "i/items/just_before_i_go.jpg",
			"title": "Just Before I Go",
			"imdb": true,
			"rating": "7.2",
			"free": false
		}]
	},
	{
		"title": "Continue watching",
		"items": [{
			"image": "i/items/legends_of_oz_ver5.jpg",
			"title": "Legends of OZ",
			"imdb": true,
			"rating": "7.4",
			"free": true
		},
		{
			"image": "i/items/lego_movie_ver8.jpg",
			"title": "Aloft",
			"imdb": true,
			"rating": "7.4",
			"free": false
		},
		{
			"image": "i/items/maggie.jpg",
			"title": "Ant manver2",
			"imdb": true,
			"rating": "8.6",
			"free": true
		},
		{
			"image": "i/items/sabotage.jpg",
			"title": "Avengers",
			"imdb": true,
			"rating": "8.7",
			"free": false
		},
		{
			"image": "i/items/second_best_exotic_marigold_hotel_ver3.jpg",
			"title": "Furious seven",
			"imdb": true,
			"rating": "4.4",
			"free": false
		},
		{
			"image": "i/items/signal_ver4.jpg",
			"title": "Get Hard",
			"imdb": true,
			"rating": "7.2",
			"free": false
		},
		{
			"image": "i/items/skeleton_twins.jpg",
			"title": "home",
			"imdb": true,
			"rating": "7.2",
			"free": false
		},
		{
			"image": "i/items/st_vincent.jpg",
			"title": "I Robot",
			"imdb": true,
			"rating": "8.6",
			"free": true
		},
		{
			"image": "i/items/step_up_all_in.jpg",
			"title": "Insurgent",
			"imdb": true,
			"rating": "8.7",
			"free": false
		},
		{
			"image": "i/items/straight_outta_compton_ver7.jpg",
			"title": "It follows",
			"imdb": true,
			"rating": "4.4",
			"free": false
		},
		{
			"image": "i/items/tammy.jpg",
			"title": "John wick",
			"imdb": true,
			"rating": "7.2",
			"free": false
		},
		{
			"image": "i/items/teenage_mutant_ninja_turtles_ver5.jpg",
			"title": "Just Before I Go",
			"imdb": true,
			"rating": "7.2",
			"free": false
		}]
	},
	{
		"title": "Dummy",
		"items": [{
			"image": "i/items/that_awkward_moment.jpg",
			"title": "Kill Me Three Times",
			"imdb": true,
			"rating": "4.4",
			"free": false
		},
		{
			"image": "i/items/think_like_a_man_too.jpg",
			"title": "Kingsman",
			"imdb": true,
			"rating": "7.2",
			"free": false
		},
		{
			"image": "i/items/this_is_where_i_leave_you.jpg",
			"title": "Hand Ho",
			"imdb": true,
			"rating": "7.2",
			"free": false
		},
		{
			"image": "i/items/kingsman_the_secret_service_ver7.jpg",
			"title": "Kingsman",
			"imdb": true,
			"rating": "7.2",
			"free": false
		},
		{
			"image": "i/items/land_ho.jpg",
			"title": "Hand Ho",
			"imdb": true,
			"rating": "7.2",
			"free": false
		},
		{
			"image": "i/items/kill_me_three_times.jpg",
			"title": "Kill Me Three Times",
			"imdb": true,
			"rating": "4.4",
			"free": false
		},
		{
			"image": "i/items/three_hundred_rise_of_an_empire.jpg",
			"title": "I Robot",
			"imdb": true,
			"rating": "8.6",
			"free": true
		},
		{
			"image": "i/items/to_be_takei.jpg",
			"title": "Insurgent",
			"imdb": true,
			"rating": "8.7",
			"free": false
		},
		{
			"image": "i/items/top_five.jpg",
			"title": "It follows",
			"imdb": true,
			"rating": "4.4",
			"free": false
		},
		{
			"image": "i/items/transcendence.jpg",
			"title": "John wick",
			"imdb": true,
			"rating": "7.2",
			"free": false
		},
		{
			"image": "i/items/trust_me.jpg",
			"title": "Just Before I Go",
			"imdb": true,
			"rating": "7.2",
			"free": false
		}]
	},
	{
		"title": "Dummy",
		"items": [{
			"image": "i/items/twenty_two_jump_street.jpg",
			"title": "Aftermath",
			"imdb": true,
			"rating": "7.4",
			"free": true
		},
		{
			"image": "i/items/unbroken.jpg",
			"title": "Aloft",
			"imdb": true,
			"rating": "7.4",
			"free": false
		},
		{
			"image": "i/items/underwater_dreams.jpg",
			"title": "Ant manver2",
			"imdb": true,
			"rating": "8.6",
			"free": true
		},
		{
			"image": "i/items/vampire_academy_blood_sisters.jpg",
			"title": "Avengers",
			"imdb": true,
			"rating": "8.7",
			"free": false
		},
		{
			"image": "i/items/veronica_mars.jpg",
			"title": "Furious seven",
			"imdb": true,
			"rating": "4.4",
			"free": false
		},
		{
			"image": "i/items/very_good_girls.jpg",
			"title": "Get Hard",
			"imdb": true,
			"rating": "7.2",
			"free": false
		},
		{
			"image": "i/items/visitors_ver2.jpg",
			"title": "home",
			"imdb": true,
			"rating": "7.2",
			"free": false
		},
		{
			"image": "i/items/walk_among_the_tombstones.jpg",
			"title": "I Robot",
			"imdb": true,
			"rating": "8.6",
			"free": true
		},
		{
			"image": "i/items/walk_of_shame_ver3.jpg",
			"title": "Insurgent",
			"imdb": true,
			"rating": "8.7",
			"free": false
		},
		{
			"image": "i/items/welcome_to_the_jungle.jpg",
			"title": "It follows",
			"imdb": true,
			"rating": "4.4",
			"free": false
		},
		{
			"image": "i/items/whiplash.jpg",
			"title": "John wick",
			"imdb": true,
			"rating": "7.2",
			"free": false
		},
		{
			"image": "i/items/woman_in_gold_ver2.jpg",
			"title": "Just Before I Go",
			"imdb": true,
			"rating": "7.2",
			"free": false
		}]
	}]
}